{
    "name": "TechlifyNotification",
    "alias": "techlifynotification",
    "description": "",
    "keywords": [],
    "order": 0,
    "providers": [
        "Modules\\TechlifyNotification\\Providers\\TechlifyNotificationServiceProvider"
    ],
    "aliases": {},
    "files": [],
    "requires": []
}
